<?xml version="1.0" encoding="iso-8859-1"?>
<!-- Generator: Adobe Illustrator 19.0.0, SVG Export Plug-In . SVG Version: 6.00 Build 0)  -->
<svg version="1.1" id="Capa_1" xmlns="http://www.w3.org/2000/svg" xmlns:xlink="http://www.w3.org/1999/xlink" x="0px" y="0px"
	 viewBox="0 0 512 512" style="enable-background:new 0 0 512 512;" xml:space="preserve">
<path style="fill:#FFB655;" d="M325.901,114.487H186.099c-41.753,0-78.514,27.512-90.287,67.57l-10.536,35.848h341.448
	l-10.536-35.848C404.415,141.998,367.654,114.487,325.901,114.487z"/>
<path style="opacity:0.05;enable-background:new    ;" d="M214.389,114.487h-28.29c-41.753,0-78.514,27.512-90.287,67.571
	l-10.535,35.848h103.585C179.596,185.04,200.045,131.088,214.389,114.487z"/>
<path style="fill:#FFB655;" d="M404.724,408.582H107.276l8.36,32.653C126.297,482.875,163.818,512,206.802,512h98.397
	c42.983,0,80.504-29.125,91.165-70.765L404.724,408.582z"/>
<path style="opacity:0.1;enable-background:new    ;" d="M404.724,408.582H107.276l8.36,32.653
	C126.297,482.875,163.818,512,206.802,512h98.397c42.983,0,80.504-29.125,91.165-70.765L404.724,408.582z"/>
<path style="opacity:0.1;enable-background:new    ;" d="M210.235,408.582H107.276l8.36,32.653
	C126.297,482.875,163.818,512,206.802,512h27.369C204.711,492.797,201.88,436.49,210.235,408.582z"/>
<g>
	<path style="fill:#FFB655;" d="M403.084,313.243H108.916c-18.803,0-34.047,15.243-34.047,34.046v35.325
		c0,18.803,15.243,34.046,34.047,34.046h294.168c18.803,0,34.047-15.243,34.047-34.046V347.29
		C437.131,328.486,421.888,313.243,403.084,313.243z"/>
	<path style="fill:#FFB655;" d="M419.015,209.825H92.985c-18.206,0-32.965,14.759-32.965,32.965v37.488
		c0,18.206,14.759,32.965,32.965,32.965h326.03c18.206,0,32.965-14.759,32.965-32.965V242.79
		C451.98,224.584,437.221,209.825,419.015,209.825z"/>
</g>
<path style="opacity:0.1;enable-background:new    ;" d="M419.015,209.825H92.985c-18.206,0-32.965,14.759-32.965,32.965v37.488
	c0,18.206,14.759,32.965,32.965,32.965h326.03c18.206,0,32.965-14.759,32.965-32.965V242.79
	C451.98,224.584,437.221,209.825,419.015,209.825z"/>
<circle style="fill:#596675;" cx="304.31" cy="364.95" r="51.709"/>
<path style="opacity:0.1;enable-background:new    ;" d="M187.214,209.825H92.985c-18.206,0-32.965,14.759-32.965,32.965v37.488
	c0,18.206,14.759,32.965,32.965,32.965h102.868C167.545,290.824,170.518,235.189,187.214,209.825z"/>
<path style="opacity:0.05;enable-background:new    ;" d="M195.853,313.243h-86.937c-18.803,0-34.046,15.243-34.046,34.046v35.325
	c0,18.803,15.243,34.046,34.046,34.046h98.046C174.09,392.268,181.76,330.907,195.853,313.243z"/>
<g>
	<path style="fill:#C27C59;" d="M450.561,57.869H61.439c-15.98,0-28.935-12.954-28.935-28.935l0,0C32.504,12.955,45.459,0,61.439,0
		h389.122c15.98,0,28.935,12.955,28.935,28.935l0,0C479.496,44.915,466.541,57.869,450.561,57.869z"/>
	<rect x="235.46" y="57.869" style="fill:#C27C59;" width="41.08" height="56.617"/>
</g>
<rect x="235.46" y="57.869" style="opacity:0.1;enable-background:new    ;" width="41.08" height="56.617"/>
<path style="opacity:0.1;enable-background:new    ;" d="M147.209,0h-85.77c-15.98,0-28.935,12.955-28.935,28.935l0,0
	c0,15.98,12.954,28.935,28.935,28.935h89.621C130.718,41.833,133.096,13.424,147.209,0z"/>
<g style="opacity:0.1;">
	<circle cx="331.88" cy="156.06" r="7.46"/>
	<circle cx="251.87" cy="173.66" r="7.46"/>
	<circle cx="127.94" cy="261.53" r="7.46"/>
	<circle cx="304.31" cy="251.4" r="7.46"/>
	<circle cx="372.24" cy="283.43" r="7.46"/>
	<circle cx="170.72" cy="376.01" r="7.46"/>
	<circle cx="206.96" cy="467.75" r="7.46"/>
	<circle cx="316.28" cy="456.12" r="7.46"/>
</g>
<g>
</g>
<g>
</g>
<g>
</g>
<g>
</g>
<g>
</g>
<g>
</g>
<g>
</g>
<g>
</g>
<g>
</g>
<g>
</g>
<g>
</g>
<g>
</g>
<g>
</g>
<g>
</g>
<g>
</g>
</svg>
