{
  "project_info": {
    "project_number": "234217486535",
    "firebase_url": "https://hacker-news-app-dc72a.firebaseio.com",
    "project_id": "hacker-news-app-dc72a",
    "storage_bucket": "hacker-news-app-dc72a.appspot.com"
  },
  "client": [
    {
      "client_info": {
        "mobilesdk_app_id": "1:234217486535:android:9c37e2dde7ad919b",
        "android_client_info": {
          "package_name": "com.trackbees.app"
        }
      },
      "oauth_client": [
        {
          "client_id": "234217486535-01lucsluv4u1e352jbai490hr4on9ams.apps.googleusercontent.com",
          "client_type": 3
        }
      ],
      "api_key": [
        {
          "current_key": "AIzaSyBFO_-35lGKcrLO4CVe31bsJ9dSqb9O7-A"
        }
      ],
      "services": {
        "appinvite_service": {
          "other_platform_oauth_client": [
            {
              "client_id": "234217486535-01lucsluv4u1e352jbai490hr4on9ams.apps.googleusercontent.com",
              "client_type": 3
            },
            {
              "client_id": "234217486535-5jeo29n8c54ebits3f892ir2fjrjvci1.apps.googleusercontent.com",
              "client_type": 2,
              "ios_info": {
                "bundle_id": "com.trackbees.app"
              }
            }
          ]
        }
      }
    }
  ],
  "configuration_version": "1"
}
